…
This data is sourced from the [ONS](https://www.ons.gov.uk/peoplepopulationandcommunity/populationandmigration/populationestimates/datasets/populationestimatesforukenglandandwalesscotlandandnorthernireland) website.  It is from mid 2019, but good enough for our use.

Create an R tidy table.


{% highlight r %}
data <- raw %>%
  pivot_longer(c("cases", "deaths"), names_to = "type", values_to = "count")
data
{% endhighlight %}



{% highlight text %}
## # A tibble: 361,970 x 6
##    code      name                 date       county               type   count
##    <chr>     <chr>                <date>     <chr>                <chr>  <dbl>
##  1 E06000003 Redcar and Cleveland 2021-06-26 Redcar and Cleveland cases      4
##  2 E06000003 Redcar and Cleveland 2021-06-26 Redcar and Cleveland deaths     0
##  3 E07000040 East Devon           2021-06-26 Devon                cases      4
##  4 E07000040 East Devon           2021-06-26 Devon                deaths     0
##  5 E07000090 Havant               2021-06-26 Hampshire            cases      6
##  6 E07000090 Havant               2021-06-26 Hampshire            deaths     0
##  7 E07000214 Surrey Heath         2021-06-26 Surrey               cases      1
##  8 E07000214 Surrey Heath         2021-06-26 Surrey               deaths     0
##  9 E07000229 Worthing             2021-06-26 West Sussex          cases      1
## 10 E07000229 Worthing             2021-06-26 West Sussex          deaths     0
## # ... with 361,960 more rows
…
