…
In this code, we obtain a range (I'm sure this can be done 'automatically', but enough for now!).  Dividing into 8 groups, each group has 22/23 countries - each being within the same range of GNI.  On another project, we could first remove the regions (groups of countries) that are in the data, which may skew the result...

We manually create the list of breaks and labels, based on the result.


{% highlight r %}
split(gni_map, cut2(gni_map$gni, g = 8))
{% endhighlight %}



{% highlight text %}
## $`[6.53e+07,3.28e+09)`
## # A tibble: 29 x 5
##    CountryName              CountryCode year          gni iso2 
##    <chr>                    <chr>       <chr>       <dbl> <chr>
##  1 Antigua and Barbuda      ATG         2019  1582208562. AG   
##  2 Belize                   BLZ         2019  1721313600  BZ   
##  3 Bhutan                   BTN         2019  2300999286. BT   
##  4 Burundi                  BDI         2019  3019539459. BI   
##  5 Cabo Verde               CPV         2019  1939454972. CV   
##  6 Central African Republic CAF         2019  2386023522. CF   
##  7 Comoros                  COM         2019  1170987117. KM   
##  8 Curacao                  CUW         2019  3234078212. CW   
##  9 Djibouti                 DJI         2019  3230790007. DJ   
## 10 Dominica                 DMA         2019   573346766. DM   
## # ... with 19 more rows
## 
## $`[3.28e+09,1.36e+10)`
## # A tibble: 28 x 5
##    CountryName       CountryCode year           gni iso2 
##    <chr>             <chr>       <chr>        <dbl> <chr>
##  1 Bahamas, The      BHS         2019  13114074100  BS   
##  2 Barbados          BRB         2019   5030074650  BB   
##  3 Bermuda           BMU         2019   7587978000  BM   
##  4 Chad              TCD         2019  11140998595. TD   
##  5 Congo, Rep.       COG         2019   9534724557. CG   
##  6 Equatorial Guinea GNQ         2019   8329917011. GQ   
##  7 Eswatini          SWZ         2019   4018702284. SZ   
##  8 Fiji              FJI         2019   5045408258. FJ   
##  9 Guinea            GIN         2019  12180561102. GN   
## 10 Guyana            GUY         2019   5127159528. GY   
## # ... with 18 more rows
## 
## $`[1.36e+10,2.57e+10)`
## # A tibble: 28 x 5
##    CountryName            CountryCode year           gni iso2 
##    <chr>                  <chr>       <chr>        <dbl> <chr>
##  1 Afghanistan            AFG         2019  19597763437. AF   
##  2 Albania                ALB         2019  15077445950. AL   
##  3 Armenia                ARM         2019  13900535496. AM   
##  4 Benin                  BEN         2019  14247234409. BJ   
##  5 Bosnia and Herzegovina BIH         2019  20151944937. BA   
##  6 Botswana               BWA         2019  16946994059. BW   
##  7 Brunei Darussalam      BRN         2019  13830513708. BN   
##  8 Burkina Faso           BFA         2019  15326472488. BF   
##  9 Cambodia               KHM         2019  25525556830. KH   
## 10 Cyprus                 CYP         2019  23946675249. CY   
## # ... with 18 more rows
## 
## $`[2.57e+10,6.55e+10)`
## # A tibble: 28 x 5
##    CountryName      CountryCode year           gni iso2 
##    <chr>            <chr>       <chr>        <dbl> <chr>
##  1 Azerbaijan       AZE         2019  45986633059. AZ   
##  2 Bahrain          BHR         2019  36313430851. BH   
##  3 Belarus          BLR         2019  61210714648. BY   
##  4 Bolivia          BOL         2019  40080303995. BO   
##  5 Cameroon         CMR         2019  38259800550. CM   
##  6 Congo, Dem. Rep. COD         2019  48961721244. CD   
##  7 Costa Rica       CRI         2019  58190318731. CR   
##  8 Cote d'Ivoire    CIV         2019  56975603680. CI   
##  9 Croatia          HRV         2019  59830033764. HR   
## 10 El Salvador      SLV         2019  25716490000  SV   
## # ... with 18 more rows
## 
## $`[6.55e+10,2.71e+11)`
## # A tibble: 29 x 5
##    CountryName        CountryCode year            gni iso2 
##    <chr>              <chr>       <chr>         <dbl> <chr>
##  1 Algeria            DZA         2019  166891289782. DZ   
##  2 Angola             AGO         2019   81299397793. AO   
##  3 Bulgaria           BGR         2019   67445642244. BG   
##  4 Czech Republic     CZE         2019  235270023657. CZ   
##  5 Dominican Republic DOM         2019   84666208178. DO   
##  6 Ecuador            ECU         2019  104407196200  EC   
##  7 Ethiopia           ETH         2019   95322999765. ET   
##  8 Finland            FIN         2019  270598259035. FI   
##  9 Ghana              GHA         2019   65527306781. GH   
## 10 Greece             GRC         2019  203644992868. GR   
## # ... with 19 more rows
## 
## $`[2.71e+11,8.01e+11)`
## # A tibble: 28 x 5
##    CountryName          CountryCode year            gni iso2 
##    <chr>                <chr>       <chr>         <dbl> <chr>
##  1 Argentina            ARG         2019  427609245336. AR   
##  2 Austria              AUT         2019  447294996188. AT   
##  3 Bangladesh           BGD         2019  316907374622. BD   
##  4 Belgium              BEL         2019  539738514469. BE   
##  5 Chile                CHL         2019  270972766317. CL   
##  6 Colombia             COL         2019  313494121786. CO   
##  7 Denmark              DNK         2019  360446396646. DK   
##  8 Egypt, Arab Rep.     EGY         2019  292082655125. EG   
##  9 Hong Kong SAR, China HKG         2019  384620528593. HK   
## 10 Ireland              IRL         2019  308373471052. IE   
## # ... with 18 more rows
## 
## $`[8.01e+11,3.66e+12)`
## # A tibble: 28 x 5
##    CountryName CountryCode year      gni iso2 
##    <chr>       <chr>       <chr>   <dbl> <chr>
##  1 Australia   AUS         2019  1.35e12 AU   
##  2 Brazil      BRA         2019  1.79e12 BR   
##  3 Canada      CAN         2019  1.72e12 CA   
##  4 France      FRA         2019  2.77e12 FR   
##  5 India       IND         2019  2.84e12 IN   
##  6 Indonesia   IDN         2019  1.09e12 ID   
##  7 Italy       ITA         2019  2.02e12 IT   
##  8 Korea, Rep. KOR         2019  1.66e12 KR   
##  9 Mexico      MEX         2019  1.23e12 MX   
## 10 Netherlands NLD         2019  9.11e11 NL   
## # ... with 18 more rows
## 
## $`[3.66e+12,8.77e+13]`
## # A tibble: 28 x 5
##    CountryName                                 CountryCode year      gni iso2 
##    <chr>                                       <chr>       <chr>   <dbl> <chr>
##  1 China                                       CHN         2019  1.42e13 CN   
##  2 Germany                                     DEU         2019  3.97e12 DE   
##  3 Japan                                       JPN         2019  5.27e12 JP   
##  4 United States                               USA         2019  2.17e13 US   
##  5 Early-demographic dividend                  EAR         2019  1.18e13 <NA> 
##  6 East Asia & Pacific                         EAS         2019  2.70e13 <NA> 
##  7 East Asia & Pacific (excluding high income) EAP         2019  1.71e13 <NA> 
##  8 East Asia & Pacific (IDA & IBRD countries)  TEA         2019  1.70e13 <NA> 
##  9 Euro area                                   EMU         2019  1.34e13 <NA> 
## 10 Europe & Central Asia                       ECS         2019  2.27e13 <NA> 
## # ... with 18 more rows
…
