Covid-19 Heatmaps | // probably; definitely
…
colnames(raw) <- c(
  "code", "name", "date", "cases",
  "deaths", "county", "population"
)

Tidy…

Create an R-tidy table for easier use within ggplot.

data <- raw %>%
  pivot_longer(c("cases", "deaths"), names_to = "type", values_to = "count")
data

## # A tibble: 366,530 x 7
##    code     name              date       county           population type  count
##    <chr>    <chr>             <date>     <chr>                 <dbl> <chr> <dbl>
##  1 E060000~ Redcar and Cleve~ 2021-07-02 Redcar and Clev~     137150 cases    19
##  2 E060000~ Redcar and Cleve~ 2021-07-02 Redcar and Clev~     137150 deat~     0
##  3 E070000~ East Devon        2021-07-02 Devon                146284 cases    14
##  4 E070000~ East Devon        2021-07-02 Devon                146284 deat~     0
##  5 E070000~ Havant            2021-07-02 Hampshire            126220 cases    10
##  6 E070000~ Havant            2021-07-02 Hampshire            126220 deat~     0
##  7 E070002~ Surrey Heath      2021-07-02 Surrey                89305 cases     4
##  8 E070002~ Surrey Heath      2021-07-02 Surrey                89305 deat~     0
##  9 E070002~ Worthing          2021-07-02 West Sussex          110570 cases     7
## 10 E070002~ Worthing          2021-07-02 West Sussex          110570 deat~     0
## # ... with 366,520 more rows
…
